%!PS-Adobe-2.0 EPSF-2.0
%%BoundingBox:  0 0 567 384
%%Title: ./rateplot.eps: Rate scan graph
%%Creator: ROOT Version 5.27/06d
%%CreationDate: Tue May 17 18:02:05 2011
%%EndComments
%%BeginProlog
80 dict begin
/s {stroke} def /l {lineto} def /m {moveto} def /t {translate} def
/r {rotate} def /rl {roll}  def /R {repeat} def
/d {rlineto} def /rm {rmoveto} def /gr {grestore} def /f {eofill} def
/c {setrgbcolor} def /black {0 setgray} def /sd {setdash} def
/cl {closepath} def /sf {scalefont setfont} def /lw {setlinewidth} def
/box {m dup 0 exch d exch 0 d 0 exch neg d cl} def
/NC{systemdict begin initclip end}def/C{NC box clip newpath}def
/bl {box s} def /bf {box f} def /Y { 0 exch d} def /X { 0 d} def 
/K {{pop pop 0 moveto} exch kshow} bind def
/ita {/ang 15 def gsave [1 0 ang dup sin exch cos div 1 0 0] concat} def 
/mp {newpath /y exch def /x exch def} def
/side {[w .77 mul w .23 mul] .385 w mul sd w 0 l currentpoint t -144 r} def
/mr {mp x y w2 0 360 arc} def /m24 {mr s} def /m20 {mr f} def
/mb {mp x y w2 add m w2 neg 0 d 0 w neg d w 0 d 0 w d cl} def
/mt {mp x y w2 add m w2 neg w neg d w 0 d cl} def
/m21 {mb f} def /m25 {mb s} def /m22 {mt f} def /m26{mt s} def
/m23 {mp x y w2 sub m w2 w d w neg 0 d cl f} def
/m27 {mp x y w2 add m w3 neg w2 neg d w3 w2 neg d w3 w2 d cl s} def
/m28 {mp x w2 sub y w2 sub w3 add m w3 0 d  0 w3 neg d w3 0 d 0 w3 d w3 0 d  0 w3 d w3 neg 0 d 0 w3 d w3 neg 0 d 0 w3 neg d w3 neg 0 d cl s } def
/m29 {mp gsave x w2 sub y w2 add w3 sub m currentpoint t 4 {side} repeat cl fill gr} def
/m30 {mp gsave x w2 sub y w2 add w3 sub m currentpoint t 4 {side} repeat cl s gr} def
/m31 {mp x y w2 sub m 0 w d x w2 sub y m w 0 d x w2 sub y w2 add m w w neg d x w2 sub y w2 sub m w w d s} def
/m32 {mp x y w2 sub m w2 w d w neg 0 d cl s} def
/m33 {mp x y w2 add m w3 neg w2 neg d w3 w2 neg d w3 w2 d cl f} def
/m34 {mp x w2 sub y w2 sub w3 add m w3 0 d  0 w3 neg d w3 0 d 0 w3 d w3 0 d  0 w3 d w3 neg 0 d 0 w3 d w3 neg 0 d 0 w3 neg d w3 neg 0 d cl f } def
/m2 {mp x y w2 sub m 0 w d x w2 sub y m w 0 d s} def
/m5 {mp x w2 sub y w2 sub m w w d x w2 sub y w2 add m w w neg d s} def
/reEncode {exch findfont dup length dict begin {1 index /FID eq  {pop pop} {def} ifelse } forall /Encoding exch def currentdict end dup /FontName get exch definefont pop } def [/Times-Bold /Times-Italic /Times-BoldItalic /Helvetica /Helvetica-Oblique
 /Helvetica-Bold /Helvetica-BoldOblique /Courier /Courier-Oblique /Courier-Bold /Courier-BoldOblique /Times-Roman /AvantGarde-Book /AvantGarde-BookOblique /AvantGarde-Demi /AvantGarde-DemiOblique /Bookman-Demi /Bookman-DemiItalic /Bookman-Light
 /Bookman-LightItalic /Helvetica-Narrow /Helvetica-Narrow-Bold /Helvetica-Narrow-BoldOblique /Helvetica-Narrow-Oblique /NewCenturySchlbk-Roman /NewCenturySchlbk-Bold /NewCenturySchlbk-BoldItalic /NewCenturySchlbk-Italic /Palatino-Bold
 /Palatino-BoldItalic /Palatino-Italic /Palatino-Roman ] {ISOLatin1Encoding reEncode } forall%%EndProlog
%%BeginSetup
%%EndSetup
newpath  gsave  .25 .25 scale  gsave  0 0 t black[  ] 0 sd 3 lw 1 1 1 c black 1 1 1 c black 1837 1361 227 154 bl 1837 1361 227 154 bl 1 1 1 c black 1837 1361 227 154 bl 1837 1361 227 154 bl 227 154 m 1837 X s
 gsave  2268 1538 0 0 C 1613 36.125 t 0 r /Helvetica-Bold findfont 58.6478 sf 0 0 m 
 422 393 351 332 316 284 265 233 211 195 172 141 105 70 55 32
(Trigger rate \(Hz\)) K NC gr  227 191 m -37 Y s 290 172 m -18 Y s 353 172 m -18 Y s 416 172 m -18 Y s 480 172 m -18 Y s 543 191 m -37 Y s 606 172 m -18 Y s 669 172 m -18 Y s 732 172 m -18 Y s 796 172 m -18 Y s 859 191 m -37 Y s 922 172 m -18 Y s 985
 172 m -18 Y s 1048 172 m -18 Y s 1112 172 m -18 Y s 1175 191 m -37 Y s 1238 172 m -18 Y s 1301 172 m -18 Y s 1365 172 m -18 Y s 1428 172 m -18 Y s 1491 191 m -37 Y s 1554 172 m -18 Y s 1617 172 m -18 Y s 1681 172 m -18 Y s 1744 172 m -18 Y s 1807
 191 m -37 Y s 1807 191 m -37 Y s 1870 172 m -18 Y s 1933 172 m -18 Y s 1997 172 m -18 Y s 2060 172 m -18 Y s
 gsave  2268 1538 0 0 C 208.812 98 t 0 r /Helvetica-Bold findfont 58.6478 sf 0 0 m (0) show NC gr 
 gsave  2268 1538 0 0 C 492.188 98 t 0 r /Helvetica-Bold findfont 58.6478 sf 0 0 m (500) show NC gr 
 gsave  2268 1538 0 0 C 791.938 98 t 0 r /Helvetica-Bold findfont 58.6478 sf 0 0 m (1000) show NC gr 
 gsave  2268 1538 0 0 C 1108 98 t 0 r /Helvetica-Bold findfont 58.6478 sf 0 0 m (1500) show NC gr 
 gsave  2268 1538 0 0 C 1424.06 98 t 0 r /Helvetica-Bold findfont 58.6478 sf 0 0 m (2000) show NC gr 
 gsave  2268 1538 0 0 C 1740.12 98 t 0 r /Helvetica-Bold findfont 58.6478 sf 0 0 m (2500) show NC gr  227 154 m 1361 Y s
 gsave  2268 1538 0 0 C 68.6875 993.938 t 90 r /Helvetica-Bold findfont 58.6478 sf 0 0 m (Latency \(Seconds\)) show NC gr  287 154 m -60 X s 257 188 m -30 X s 257 223 m -30 X s 257 257 m -30 X s 287 292 m -60 X s 257 326 m -30 X s 257 361 m -30 X s
 257 395 m -30 X s 287 430 m -60 X s 257 464 m -30 X s 257 499 m -30 X s 257 533 m -30 X s 287 567 m -60 X s 257 602 m -30 X s 257 636 m -30 X s 257 671 m -30 X s 287 705 m -60 X s 257 740 m -30 X s 257 774 m -30 X s 257 809 m -30 X s 287 843 m -60 X
 s 257 878 m -30 X s 257 912 m -30 X s 257 947 m -30 X s 287 981 m -60 X s 257 1016 m -30 X s 257 1050 m -30 X s 257 1085 m -30 X s 287 1119 m -60 X s 257 1154 m -30 X s 257 1188 m -30 X s 257 1222 m -30 X s 287 1257 m -60 X s 257 1291 m -30 X s 257
 1326 m -30 X s 257 1360 m -30 X s 287 1395 m -60 X s 287 1395 m -60 X s 257 1429 m -30 X s 257 1464 m -30 X s 257 1498 m -30 X s
 gsave  2268 1538 0 0 C 182.75 133.875 t 0 r /Helvetica-Bold findfont 58.6478 sf 0 0 m (0) show NC gr 
 gsave  2268 1538 0 0 C 101.25 270.625 t 0 r /Helvetica-Bold findfont 58.6478 sf 0 0 m (0.02) show NC gr 
 gsave  2268 1538 0 0 C 101.25 407.5 t 0 r /Helvetica-Bold findfont 58.6478 sf 0 0 m (0.04) show NC gr 
 gsave  2268 1538 0 0 C 101.25 547.562 t 0 r /Helvetica-Bold findfont 58.6478 sf 0 0 m (0.06) show NC gr 
 gsave  2268 1538 0 0 C 101.25 684.438 t 0 r /Helvetica-Bold findfont 58.6478 sf 0 0 m (0.08) show NC gr 
 gsave  2268 1538 0 0 C 140.375 821.25 t 0 r /Helvetica-Bold findfont 58.6478 sf 0 0 m (0.1) show NC gr 
 gsave  2268 1538 0 0 C 101.25 961.375 t 0 r /Helvetica-Bold findfont 58.6478 sf 0 0 m (0.12) show NC gr 
 gsave  2268 1538 0 0 C 101.25 1098.19 t 0 r /Helvetica-Bold findfont 58.6478 sf 0 0 m (0.14) show NC gr 
 gsave  2268 1538 0 0 C 101.25 1235.06 t 0 r /Helvetica-Bold findfont 58.6478 sf 0 0 m (0.16) show NC gr 
 gsave  2268 1538 0 0 C 101.25 1375.19 t 0 r /Helvetica-Bold findfont 58.6478 sf 0 0 m (0.18) show NC gr  /w 26 def /w2 {w 2 div} def /w3 {w 3 div} def 1898 1093 1816 743 1706 448 1643 370 1534 336 1437 336 1279 330 1140 325 988 334 723 343 464 374
 252 499 12 { m23} R 0.95 0.95 0.95 c black 235 334 m 837 X s 1072 334 m 836 X s 1908 334 m 17 X s 1898 1106 m 300 Y s 1891 1406 m 13 X s 1898 1080 m -300 Y s 1891 780 m 13 X s 1816 756 m 166 Y s 1809 922 m 13 X s 1816 730 m -165 Y s 1809 565 m 13 X
 s 1706 461 m 46 Y s 1699 507 m 13 X s 1706 435 m -46 Y s 1699 389 m 13 X s 1643 383 m 17 Y s 1636 400 m 13 X s 1643 357 m -18 Y s 1636 339 m 13 X s 1429 336 m -1 X s 1428 329 m 13 Y s 1445 336 m 2 X s 1447 329 m 13 Y s 1271 330 m -1 X s 1270 323 m
 13 Y s 1287 330 m 2 X s 1289 323 m 13 Y s 1132 325 m -1 X s 1131 319 m 13 Y s 1148 325 m 2 X s 1150 319 m 13 Y s 981 334 m -8 X s 973 327 m 13 Y s 996 334 m 8 X s 1004 327 m 13 Y s 988 347 m 2 Y s 982 349 m 13 X s 988 321 m -2 Y s 982 319 m 13 X s
 715 343 m -2 X s 713 336 m 13 Y s 731 343 m 1 X s 732 336 m 13 Y s 723 356 m 9 Y s 716 365 m 13 X s 723 330 m -10 Y s 716 320 m 13 X s 456 374 m -2 X s 454 368 m 13 Y s 472 374 m 1 X s 473 368 m 13 Y s 464 387 m 43 Y s 457 430 m 13 X s 464 361 m -42
 Y s 457 319 m 13 X s 252 512 m 164 Y s 246 676 m 13 X s 252 485 m -164 Y s 246 321 m 13 X s 1 0 0 c 1898 1404 m 6 Y s 1891 1410 m 13 X s 1898 1378 m -6 Y s 1891 1372 m 13 X s 1816 1385 m 6 Y s 1809 1391 m 13 X s 1816 1359 m -5 Y s 1809 1354 m 13 X s
 1706 1338 m 6 Y s 1699 1344 m 13 X s 1706 1312 m -5 Y s 1699 1307 m 13 X s 1643 1292 m 5 Y s 1636 1297 m 13 X s 1643 1266 m -6 Y s 1636 1260 m 13 X s 1534 1217 m 5 Y s 1527 1222 m 13 X s 1534 1191 m -6 Y s 1527 1185 m 13 X s 1429 1147 m -1 X s 1428
 1141 m 13 Y s 1445 1147 m 2 X s 1447 1141 m 13 Y s 1437 1160 m 6 Y s 1431 1166 m 13 X s 1437 1134 m -5 Y s 1431 1129 m 13 X s 1271 1026 m -1 X s 1270 1019 m 13 Y s 1287 1026 m 2 X s 1289 1019 m 13 Y s 1279 1039 m 5 Y s 1273 1044 m 13 X s 1279 1012 m
 -5 Y s 1273 1007 m 13 X s 1132 913 m -1 X s 1131 907 m 13 Y s 1148 913 m 2 X s 1150 907 m 13 Y s 1140 926 m 6 Y s 1134 932 m 13 X s 1140 900 m -6 Y s 1134 894 m 13 X s 981 791 m -8 X s 973 785 m 13 Y s 996 791 m 8 X s 1004 785 m 13 Y s 988 804 m 6 Y
 s 982 810 m 13 X s 988 778 m -6 Y s 982 772 m 13 X s 715 566 m -2 X s 713 560 m 13 Y s 731 566 m 1 X s 732 560 m 13 Y s 723 579 m 6 Y s 716 585 m 13 X s 723 553 m -6 Y s 716 547 m 13 X s 456 351 m -2 X s 454 344 m 13 Y s 472 351 m 1 X s 473 344 m 13
 Y s 464 364 m 5 Y s 457 369 m 13 X s 464 338 m -6 Y s 457 332 m 13 X s black 1 0 0 c 1898 1391 1816 1372 1706 1325 1643 1279 1534 1204 1437 1147 1279 1026 1140 913 988 791 723 566 464 351 11 { m22} R 2064 154 m 1361 Y s black 1 0 0 c
 gsave  2268 1538 0 0 C 2241.88 1137.31 t 90 r /Helvetica-Bold findfont 58.6478 sf 0 0 m (CPU usage %) show NC gr  2003 154 m 61 X s 2034 201 m 30 X s 2034 248 m 30 X s 2034 294 m 30 X s 2003 341 m 61 X s 2034 388 m 30 X s 2034 435 m 30 X s 2034 482
 m 30 X s 2003 529 m 61 X s 2034 576 m 30 X s 2034 622 m 30 X s 2034 669 m 30 X s 2003 716 m 61 X s 2034 763 m 30 X s 2034 810 m 30 X s 2034 857 m 30 X s 2003 904 m 61 X s 2034 951 m 30 X s 2034 997 m 30 X s 2034 1044 m 30 X s 2003 1091 m 61 X s 2034
 1138 m 30 X s 2034 1185 m 30 X s 2034 1232 m 30 X s 2003 1279 m 61 X s 2034 1325 m 30 X s 2034 1372 m 30 X s 2034 1419 m 30 X s 2003 1466 m 61 X s 2003 1466 m 61 X s 2034 1513 m 30 X s black 1 0 0 c
 gsave  2268 1538 0 0 C 2072.44 133.875 t 0 r /Helvetica-Bold findfont 58.6478 sf 0 0 m (0) show NC gr  black 1 0 0 c
 gsave  2268 1538 0 0 C 2072.44 319.5 t 0 r /Helvetica-Bold findfont 58.6478 sf 0 0 m (20) show NC gr  black 1 0 0 c
 gsave  2268 1538 0 0 C 2072.44 508.5 t 0 r /Helvetica-Bold findfont 58.6478 sf 0 0 m (40) show NC gr  black 1 0 0 c
 gsave  2268 1538 0 0 C 2072.44 694.188 t 0 r /Helvetica-Bold findfont 58.6478 sf 0 0 m (60) show NC gr  black 1 0 0 c
 gsave  2268 1538 0 0 C 2072.44 883.188 t 0 r /Helvetica-Bold findfont 58.6478 sf 0 0 m (80) show NC gr  black 1 0 0 c
 gsave  2268 1538 0 0 C 2072.44 1068.88 t 0 r /Helvetica-Bold findfont 58.6478 sf 0 0 m (100) show NC gr  black 1 0 0 c
 gsave  2268 1538 0 0 C 2072.44 1257.88 t 0 r /Helvetica-Bold findfont 58.6478 sf 0 0 m (120) show NC gr  black 1 0 0 c
 gsave  2268 1538 0 0 C 2072.44 1443.56 t 0 r /Helvetica-Bold findfont 58.6478 sf 0 0 m (140) show NC gr  0.95 0.95 0.95 c black 1 0 0 c 235 161 m 17 14 d 17 14 d 18 14 d 17 14 d 17 14 d 17 14 d 17 14 d 17 14 d 17 14 d 17 14 d 17 14 d 17 14 d 17 14 d
 17 14 d 17 14 d 17 14 d 17 14 d 18 14 d 17 14 d 17 14 d 17 14 d 17 14 d 17 14 d 17 14 d 17 14 d 17 14 d 17 14 d 17 14 d 17 14 d 17 14 d 17 14 d 17 14 d 17 14 d 18 14 d 17 13 d 17 14 d 17 14 d 17 14 d 17 14 d 17 14 d 17 14 d 17 14 d 17 14 d 17 14 d
 17 14 d 17 14 d 17 14 d 17 14 d 18 14 d s 1072 846 m 17 14 d 17 14 d 17 14 d 17 14 d 17 14 d 17 14 d 17 14 d 17 14 d 17 14 d 17 14 d 17 14 d 17 14 d 17 14 d 17 14 d 18 14 d 17 14 d 17 14 d 17 14 d 17 14 d 17 14 d 17 14 d 17 14 d 17 14 d 17 14 d 17
 14 d 17 14 d 17 14 d 17 14 d 17 14 d 18 14 d 17 14 d 17 14 d 17 14 d 17 14 d 17 14 d 17 14 d 17 14 d 17 14 d 17 14 d 17 14 d 17 14 d 17 14 d 17 14 d 17 14 d 18 14 d 17 14 d 17 14 d 17 11 d s
 gr  gr showpage
end
%%EOF
