%!PS-Adobe-2.0 EPSF-2.0
%%BoundingBox:  0 0 567 384
%%Title: ./cpupeakplot.eps: CPU peak load per process
%%Creator: ROOT Version 5.27/06d
%%CreationDate: Tue May 17 18:02:23 2011
%%EndComments
%%BeginProlog
80 dict begin
/s {stroke} def /l {lineto} def /m {moveto} def /t {translate} def
/r {rotate} def /rl {roll}  def /R {repeat} def
/d {rlineto} def /rm {rmoveto} def /gr {grestore} def /f {eofill} def
/c {setrgbcolor} def /black {0 setgray} def /sd {setdash} def
/cl {closepath} def /sf {scalefont setfont} def /lw {setlinewidth} def
/box {m dup 0 exch d exch 0 d 0 exch neg d cl} def
/NC{systemdict begin initclip end}def/C{NC box clip newpath}def
/bl {box s} def /bf {box f} def /Y { 0 exch d} def /X { 0 d} def 
/K {{pop pop 0 moveto} exch kshow} bind def
/ita {/ang 15 def gsave [1 0 ang dup sin exch cos div 1 0 0] concat} def 
/mp {newpath /y exch def /x exch def} def
/side {[w .77 mul w .23 mul] .385 w mul sd w 0 l currentpoint t -144 r} def
/mr {mp x y w2 0 360 arc} def /m24 {mr s} def /m20 {mr f} def
/mb {mp x y w2 add m w2 neg 0 d 0 w neg d w 0 d 0 w d cl} def
/mt {mp x y w2 add m w2 neg w neg d w 0 d cl} def
/m21 {mb f} def /m25 {mb s} def /m22 {mt f} def /m26{mt s} def
/m23 {mp x y w2 sub m w2 w d w neg 0 d cl f} def
/m27 {mp x y w2 add m w3 neg w2 neg d w3 w2 neg d w3 w2 d cl s} def
/m28 {mp x w2 sub y w2 sub w3 add m w3 0 d  0 w3 neg d w3 0 d 0 w3 d w3 0 d  0 w3 d w3 neg 0 d 0 w3 d w3 neg 0 d 0 w3 neg d w3 neg 0 d cl s } def
/m29 {mp gsave x w2 sub y w2 add w3 sub m currentpoint t 4 {side} repeat cl fill gr} def
/m30 {mp gsave x w2 sub y w2 add w3 sub m currentpoint t 4 {side} repeat cl s gr} def
/m31 {mp x y w2 sub m 0 w d x w2 sub y m w 0 d x w2 sub y w2 add m w w neg d x w2 sub y w2 sub m w w d s} def
/m32 {mp x y w2 sub m w2 w d w neg 0 d cl s} def
/m33 {mp x y w2 add m w3 neg w2 neg d w3 w2 neg d w3 w2 d cl f} def
/m34 {mp x w2 sub y w2 sub w3 add m w3 0 d  0 w3 neg d w3 0 d 0 w3 d w3 0 d  0 w3 d w3 neg 0 d 0 w3 d w3 neg 0 d 0 w3 neg d w3 neg 0 d cl f } def
/m2 {mp x y w2 sub m 0 w d x w2 sub y m w 0 d s} def
/m5 {mp x w2 sub y w2 sub m w w d x w2 sub y w2 add m w w neg d s} def
/reEncode {exch findfont dup length dict begin {1 index /FID eq  {pop pop} {def} ifelse } forall /Encoding exch def currentdict end dup /FontName get exch definefont pop } def [/Times-Bold /Times-Italic /Times-BoldItalic /Helvetica /Helvetica-Oblique
 /Helvetica-Bold /Helvetica-BoldOblique /Courier /Courier-Oblique /Courier-Bold /Courier-BoldOblique /Times-Roman /AvantGarde-Book /AvantGarde-BookOblique /AvantGarde-Demi /AvantGarde-DemiOblique /Bookman-Demi /Bookman-DemiItalic /Bookman-Light
 /Bookman-LightItalic /Helvetica-Narrow /Helvetica-Narrow-Bold /Helvetica-Narrow-BoldOblique /Helvetica-Narrow-Oblique /NewCenturySchlbk-Roman /NewCenturySchlbk-Bold /NewCenturySchlbk-BoldItalic /NewCenturySchlbk-Italic /Palatino-Bold
 /Palatino-BoldItalic /Palatino-Italic /Palatino-Roman ] {ISOLatin1Encoding reEncode } forall%%EndProlog
%%BeginSetup
%%EndSetup
newpath  gsave  .25 .25 scale  gsave  0 0 t black[  ] 0 sd 3 lw 1 1 1 c black 1 1 1 c black 2007 1361 227 154 bl 2007 1361 227 154 bl 1 1 1 c black 2007 1361 227 154 bl 2007 1361 227 154 bl 227 154 m 2007 X s
 gsave  2268 1538 0 0 C 1782.69 36.0625 t 0 r /Helvetica-Bold findfont 58.6478 sf 0 0 m 
 422 393 351 332 316 284 265 233 211 195 173 141 106 70 55 32
(Trigger rate \(Hz\)) K NC gr  496 195 m -41 Y s 570 174 m -20 Y s 643 174 m -20 Y s 716 174 m -20 Y s 789 174 m -20 Y s 862 195 m -41 Y s 936 174 m -20 Y s 1009 174 m -20 Y s 1082 174 m -20 Y s 1155 174 m -20 Y s 1228 195 m -41 Y s 1302 174 m -20 Y
 s 1375 174 m -20 Y s 1448 174 m -20 Y s 1521 174 m -20 Y s 1594 195 m -41 Y s 1668 174 m -20 Y s 1741 174 m -20 Y s 1814 174 m -20 Y s 1887 174 m -20 Y s 1960 195 m -41 Y s 496 195 m -41 Y s 423 174 m -20 Y s 350 174 m -20 Y s 277 174 m -20 Y s 1960
 195 m -41 Y s 2034 174 m -20 Y s 2107 174 m -20 Y s 2180 174 m -20 Y s
 gsave  2268 1538 0 0 C 446.812 97.9375 t 0 r /Helvetica-Bold findfont 58.6478 sf 0 0 m (500) show NC gr 
 gsave  2268 1538 0 0 C 795.438 97.9375 t 0 r /Helvetica-Bold findfont 58.6478 sf 0 0 m (1000) show NC gr 
 gsave  2268 1538 0 0 C 1163.62 97.9375 t 0 r /Helvetica-Bold findfont 58.6478 sf 0 0 m (1500) show NC gr 
 gsave  2268 1538 0 0 C 1528.56 97.9375 t 0 r /Helvetica-Bold findfont 58.6478 sf 0 0 m (2000) show NC gr 
 gsave  2268 1538 0 0 C 1893.44 97.9375 t 0 r /Helvetica-Bold findfont 58.6478 sf 0 0 m (2500) show NC gr  227 154 m 1361 Y s
 gsave  2268 1538 0 0 C 68.9375 1137.31 t 90 r /Helvetica-Bold findfont 58.6478 sf 0 0 m (CPU usage %) show NC gr  287 277 m -60 X s 257 326 m -30 X s 257 376 m -30 X s 257 425 m -30 X s 287 474 m -60 X s 257 524 m -30 X s 257 573 m -30 X s 257 622 m
 -30 X s 287 672 m -60 X s 257 721 m -30 X s 257 770 m -30 X s 257 820 m -30 X s 287 869 m -60 X s 257 918 m -30 X s 257 967 m -30 X s 257 1017 m -30 X s 287 1066 m -60 X s 257 1115 m -30 X s 257 1165 m -30 X s 257 1214 m -30 X s 287 1263 m -60 X s
 257 1313 m -30 X s 257 1362 m -30 X s 257 1411 m -30 X s 287 1461 m -60 X s 287 277 m -60 X s 257 228 m -30 X s 257 178 m -30 X s 287 1461 m -60 X s 257 1510 m -30 X s
 gsave  2268 1538 0 0 C 150.312 257.562 t 0 r /Helvetica-Bold findfont 58.6478 sf 0 0 m (20) show NC gr 
 gsave  2268 1538 0 0 C 150.312 453.062 t 0 r /Helvetica-Bold findfont 58.6478 sf 0 0 m (40) show NC gr 
 gsave  2268 1538 0 0 C 150.312 651.812 t 0 r /Helvetica-Bold findfont 58.6478 sf 0 0 m (60) show NC gr 
 gsave  2268 1538 0 0 C 150.312 847.312 t 0 r /Helvetica-Bold findfont 58.6478 sf 0 0 m (80) show NC gr 
 gsave  2268 1538 0 0 C 117.812 1046.06 t 0 r /Helvetica-Bold findfont 58.6478 sf 0 0 m (100) show NC gr 
 gsave  2268 1538 0 0 C 117.812 1241.56 t 0 r /Helvetica-Bold findfont 58.6478 sf 0 0 m (120) show NC gr 
 gsave  2268 1538 0 0 C 117.812 1440.31 t 0 r /Helvetica-Bold findfont 58.6478 sf 0 0 m (140) show NC gr  1 0 0 c black 1 0 0 c /w 26 def /w2 {w 2 div} def /w3 {w 3 div} def 2065 1382 1971 1362 1843 1313 1770 1263 1644 1184 1532 1125 1349 997 1188
 879 1012 750 705 514 405 287 11 { m22} R 2065 1395 m 6 Y s 2059 1401 m 13 X s 2065 1369 m -7 Y s 2059 1362 m 13 X s 1971 1375 m 7 Y s 1964 1382 m 13 X s 1971 1349 m -7 Y s 1964 1342 m 13 X s 1843 1326 m 6 Y s 1837 1332 m 13 X s 1843 1300 m -7 Y s
 1837 1293 m 13 X s 1770 1276 m 7 Y s 1764 1283 m 13 X s 1770 1250 m -6 Y s 1764 1244 m 13 X s 1644 1197 m 7 Y s 1637 1204 m 13 X s 1644 1171 m -6 Y s 1637 1165 m 13 X s 1524 1125 m -3 X s 1521 1119 m 13 Y s 1540 1125 m 3 X s 1543 1119 m 13 Y s 1532
 1138 m 7 Y s 1526 1145 m 13 X s 1532 1112 m -6 Y s 1526 1106 m 13 X s 1341 997 m -3 X s 1338 991 m 13 Y s 1357 997 m 3 X s 1360 991 m 13 Y s 1349 1010 m 7 Y s 1343 1017 m 13 X s 1349 984 m -7 Y s 1343 977 m 13 X s 1180 879 m -3 X s 1177 872 m 13 Y s
 1196 879 m 3 X s 1199 872 m 13 Y s 1188 892 m 6 Y s 1182 898 m 13 X s 1188 866 m -7 Y s 1182 859 m 13 X s 1005 750 m -11 X s 994 744 m 13 Y s 1020 750 m 11 X s 1031 744 m 13 Y s 1012 763 m 7 Y s 1006 770 m 13 X s 1012 737 m -6 Y s 1006 731 m 13 X s
 697 514 m -3 X s 694 507 m 13 Y s 713 514 m 3 X s 716 507 m 13 Y s 705 527 m 6 Y s 699 533 m 13 X s 705 501 m -7 Y s 699 494 m 13 X s 397 287 m -3 X s 394 280 m 13 Y s 413 287 m 3 X s 416 280 m 13 Y s 405 300 m 7 Y s 398 307 m 14 X s 405 274 m -7 Y
 s 398 267 m 14 X s 0 1 0 c 2065 1109 m 6 Y s 2059 1115 m 13 X s 2065 1083 m -7 Y s 2059 1076 m 13 X s 1971 1050 m 6 Y s 1964 1056 m 13 X s 1971 1023 m -6 Y s 1964 1017 m 13 X s 1843 990 m 7 Y s 1837 997 m 13 X s 1843 964 m -6 Y s 1837 958 m 13 X s
 1770 951 m 7 Y s 1764 958 m 13 X s 1770 925 m -7 Y s 1764 918 m 13 X s 1644 872 m 7 Y s 1637 879 m 13 X s 1644 846 m -7 Y s 1637 839 m 13 X s black 0 1 0 c 2065 1096 1971 1036 1843 977 1770 938 1644 859 5 { m23} R black 1532 793 m 7 Y s 1526 800 m
 13 X s 1532 767 m -7 Y s 1526 760 m 13 X s 1349 763 m 7 Y s 1343 770 m 13 X s 1349 737 m -6 Y s 1343 731 m 13 X s 1188 724 m 7 Y s 1182 731 m 13 X s 1188 698 m -7 Y s 1182 691 m 13 X s 999 603 m -5 X s 994 596 m 13 Y s 1026 603 m 5 X s 1031 596 m 13
 Y s 1012 616 m 6 Y s 1006 622 m 13 X s 1012 589 m -6 Y s 1006 583 m 13 X s 705 428 m 7 Y s 699 435 m 13 X s 705 402 m -7 Y s 699 395 m 13 X s 405 261 m 6 Y s 398 267 m 14 X s 405 234 m -6 Y s 398 228 m 14 X s 1532 780 1349 750 1188 711 1012 603 705
 415 405 247 6 { m21} R 1 1 1 c black 1153 231 m -13 Y 1014 X 301 Y -13 X -288 Y f 1134 231 m 307 Y 1020 X -307 Y -1020 X cl s
 gsave  2268 1538 0 0 C 1388.44 479.125 t 0 r /Helvetica-Bold findfont 32.5821 sf 0 0 m (EventMergerNew on cn023) show NC gr  1 0 0 c 1172 487 m 179 X s 1261 487 m22 black
 gsave  2268 1538 0 0 C 1388.44 371.625 t 0 r /Helvetica-Bold findfont 32.5821 sf 0 0 m 
 556 538 520 499 481 472 452 432 422 410 391 371 362 349 331 312 292 272 250 237 219 199 179 160 147 117 106 86 66 42 33 23
(AliRootWrapperSubscriber on cn018) K NC gr  0 1 0 c 1172 384 m 179 X s 1261 384 m23 black
 gsave  2268 1538 0 0 C 1388.44 273.875 t 0 r /Helvetica-Bold findfont 32.5821 sf 0 0 m 
 674 655 635 622 604 584 564 554 542 531 510 492 481 472 452 432 422 410 391 371 362 349 331 312 292 272 250 237 219 199 179 160 148 117 106 86 66 42 33 23
(AliRootWrapperSubscriber on feptriggerdet) K NC gr  1172 282 m 179 X s 1261 282 m21
 gr  gr showpage
end
%%EOF
