%!PS-Adobe-2.0 EPSF-2.0
%%BoundingBox:  0 0 567 384
%%Title: ./meanrates.eps: Average event recording rates for p+p runs in 2010 and 2011
%%Creator: ROOT Version 5.27/06d
%%CreationDate: Tue May 17 19:23:13 2011
%%EndComments
%%BeginProlog
80 dict begin
/s {stroke} def /l {lineto} def /m {moveto} def /t {translate} def
/r {rotate} def /rl {roll}  def /R {repeat} def
/d {rlineto} def /rm {rmoveto} def /gr {grestore} def /f {eofill} def
/c {setrgbcolor} def /black {0 setgray} def /sd {setdash} def
/cl {closepath} def /sf {scalefont setfont} def /lw {setlinewidth} def
/box {m dup 0 exch d exch 0 d 0 exch neg d cl} def
/NC{systemdict begin initclip end}def/C{NC box clip newpath}def
/bl {box s} def /bf {box f} def /Y { 0 exch d} def /X { 0 d} def 
/K {{pop pop 0 moveto} exch kshow} bind def
/ita {/ang 15 def gsave [1 0 ang dup sin exch cos div 1 0 0] concat} def 
/mp {newpath /y exch def /x exch def} def
/side {[w .77 mul w .23 mul] .385 w mul sd w 0 l currentpoint t -144 r} def
/mr {mp x y w2 0 360 arc} def /m24 {mr s} def /m20 {mr f} def
/mb {mp x y w2 add m w2 neg 0 d 0 w neg d w 0 d 0 w d cl} def
/mt {mp x y w2 add m w2 neg w neg d w 0 d cl} def
/m21 {mb f} def /m25 {mb s} def /m22 {mt f} def /m26{mt s} def
/m23 {mp x y w2 sub m w2 w d w neg 0 d cl f} def
/m27 {mp x y w2 add m w3 neg w2 neg d w3 w2 neg d w3 w2 d cl s} def
/m28 {mp x w2 sub y w2 sub w3 add m w3 0 d  0 w3 neg d w3 0 d 0 w3 d w3 0 d  0 w3 d w3 neg 0 d 0 w3 d w3 neg 0 d 0 w3 neg d w3 neg 0 d cl s } def
/m29 {mp gsave x w2 sub y w2 add w3 sub m currentpoint t 4 {side} repeat cl fill gr} def
/m30 {mp gsave x w2 sub y w2 add w3 sub m currentpoint t 4 {side} repeat cl s gr} def
/m31 {mp x y w2 sub m 0 w d x w2 sub y m w 0 d x w2 sub y w2 add m w w neg d x w2 sub y w2 sub m w w d s} def
/m32 {mp x y w2 sub m w2 w d w neg 0 d cl s} def
/m33 {mp x y w2 add m w3 neg w2 neg d w3 w2 neg d w3 w2 d cl f} def
/m34 {mp x w2 sub y w2 sub w3 add m w3 0 d  0 w3 neg d w3 0 d 0 w3 d w3 0 d  0 w3 d w3 neg 0 d 0 w3 d w3 neg 0 d 0 w3 neg d w3 neg 0 d cl f } def
/m2 {mp x y w2 sub m 0 w d x w2 sub y m w 0 d s} def
/m5 {mp x w2 sub y w2 sub m w w d x w2 sub y w2 add m w w neg d s} def
/reEncode {exch findfont dup length dict begin {1 index /FID eq  {pop pop} {def} ifelse } forall /Encoding exch def currentdict end dup /FontName get exch definefont pop } def [/Times-Bold /Times-Italic /Times-BoldItalic /Helvetica /Helvetica-Oblique
 /Helvetica-Bold /Helvetica-BoldOblique /Courier /Courier-Oblique /Courier-Bold /Courier-BoldOblique /Times-Roman /AvantGarde-Book /AvantGarde-BookOblique /AvantGarde-Demi /AvantGarde-DemiOblique /Bookman-Demi /Bookman-DemiItalic /Bookman-Light
 /Bookman-LightItalic /Helvetica-Narrow /Helvetica-Narrow-Bold /Helvetica-Narrow-BoldOblique /Helvetica-Narrow-Oblique /NewCenturySchlbk-Roman /NewCenturySchlbk-Bold /NewCenturySchlbk-BoldItalic /NewCenturySchlbk-Italic /Palatino-Bold
 /Palatino-BoldItalic /Palatino-Italic /Palatino-Roman ] {ISOLatin1Encoding reEncode } forall%%EndProlog
%%BeginSetup
%%EndSetup
newpath  gsave  .25 .25 scale  gsave  0 0 t black[  ] 0 sd 3 lw 1 1 1 c black 1 1 1 c black 1973 1361 204 154 bl 1973 1361 204 154 bl 1 1 1 c black 1973 1361 204 154 bl 1973 1361 204 154 bl 0 0 1 c[ 12 12] 0 sd 6 lw 1 1 1 c black 0 0 1 c 204 1176 m
 20 X 18 Y 20 X 79 Y 19 X -239 Y 20 X -95 Y 20 X -81 Y 19 X -73 Y 20 X 196 Y 20 X 156 Y 20 X -46 Y 19 X -91 Y 20 X 50 Y 20 X -50 Y 20 X 91 Y 19 X 127 Y 20 X 22 Y 20 X 112 Y 19 X -39 Y 20 X -332 Y 20 X -42 Y 20 X -51 Y 19 X 162 Y 40 X -16 Y 20 X 16 Y
 19 X 14 Y 20 X -83 Y 20 X 53 Y 20 X -210 Y 19 X 137 Y 20 X -103 Y 20 X -176 Y 19 X 103 Y 20 X -176 Y 40 X -103 Y 19 X -176 Y 20 X -176 Y 20 X 352 Y 20 X 103 Y 19 X -103 Y 20 X 103 Y 20 X -279 Y 19 X -176 Y 20 X 176 Y 20 X -176 Y 20 X 455 Y 19 X -279
 Y 20 X -176 Y 20 X 176 Y 20 X -176 Y 986 X s[  ] 0 sd 3 lw 1 1 1 c black 1711 1138 m -6 Y 450 X 150 Y -7 X -144 Y f 0 0 1 c 1701 1138 m 154 Y 453 X -154 Y -453 X cl s black 0 0 1 c black 0 0 1 c
 gsave  2268 1538 0 0 C 1720.25 1228.44 t 0 r /Helvetica-Bold findfont 65.1643 sf 0 0 m (Mean  ) show NC gr  black 0 0 1 c
 gsave  2268 1538 0 0 C 1932.06 1228.44 t 0 r /Helvetica-Bold findfont 65.1643 sf 0 0 m (  465.4) show NC gr  black 0 0 1 c
 gsave  2268 1538 0 0 C 1720.25 1153.5 t 0 r /Helvetica-Bold findfont 65.1643 sf 0 0 m (RMS   ) show NC gr  black 0 0 1 c
 gsave  2268 1538 0 0 C 1941.81 1153.5 t 0 r /Helvetica-Bold findfont 65.1643 sf 0 0 m (  294.1) show NC gr  black 204 154 m 1973 X s
 gsave  2268 1538 0 0 C 1479.12 36 t 0 r /Helvetica-Bold findfont 58.6478 sf 0 0 m (Event recording rate \(Hz\)) show NC gr  204 194 m -40 Y s 270 174 m -20 Y s 336 174 m -20 Y s 401 174 m -20 Y s 467 174 m -20 Y s 533 194 m -40 Y s 599 174 m -20 Y s
 664 174 m -20 Y s 730 174 m -20 Y s 796 174 m -20 Y s 862 194 m -40 Y s 927 174 m -20 Y s 993 174 m -20 Y s 1059 174 m -20 Y s 1125 174 m -20 Y s 1191 194 m -40 Y s 1256 174 m -20 Y s 1322 174 m -20 Y s 1388 174 m -20 Y s 1454 174 m -20 Y s 1519 194
 m -40 Y s 1585 174 m -20 Y s 1651 174 m -20 Y s 1717 174 m -20 Y s 1782 174 m -20 Y s 1848 194 m -40 Y s 1914 174 m -20 Y s 1980 174 m -20 Y s 2045 174 m -20 Y s 2111 174 m -20 Y s 2177 194 m -40 Y s
 gsave  2268 1538 0 0 C 185.688 97.9375 t 0 r /Helvetica-Bold findfont 58.6478 sf 0 0 m (0) show NC gr 
 gsave  2268 1538 0 0 C 482.125 97.9375 t 0 r /Helvetica-Bold findfont 58.6478 sf 0 0 m (500) show NC gr 
 gsave  2268 1538 0 0 C 794.938 97.9375 t 0 r /Helvetica-Bold findfont 58.6478 sf 0 0 m (1000) show NC gr 
 gsave  2268 1538 0 0 C 1124 97.9375 t 0 r /Helvetica-Bold findfont 58.6478 sf 0 0 m (1500) show NC gr 
 gsave  2268 1538 0 0 C 1453.06 97.9375 t 0 r /Helvetica-Bold findfont 58.6478 sf 0 0 m (2000) show NC gr 
 gsave  2268 1538 0 0 C 1782.12 97.9375 t 0 r /Helvetica-Bold findfont 58.6478 sf 0 0 m (2500) show NC gr 
 gsave  2268 1538 0 0 C 2111.25 97.9375 t 0 r /Helvetica-Bold findfont 58.6478 sf 0 0 m (3000) show NC gr  204 154 m 1361 Y s
 gsave  2268 1538 0 0 C 65.125 1078.56 t 90 r /Helvetica-Bold findfont 58.6478 sf 0 0 m (Number of runs) show NC gr  234 154 m -30 X s 234 200 m -30 X s 234 239 m -30 X s 234 273 m -30 X s 234 303 m -30 X s 264 330 m -60 X s
 gsave  2268 1538 0 0 C 185.5 306.625 t 0 r  -31 0 t /Helvetica-Bold findfont 58.6478 sf 0 0 m (1) show NC gr  234 506 m -30 X s 234 609 m -30 X s 234 682 m -30 X s 234 739 m -30 X s 234 785 m -30 X s 234 824 m -30 X s 234 858 m -30 X s 234 888 m -30
 X s 264 915 m -60 X s
 gsave  2268 1538 0 0 C 185.5 891.5 t 0 r  -63 0 t /Helvetica-Bold findfont 58.6478 sf 0 0 m (10) show NC gr  234 1091 m -30 X s 234 1194 m -30 X s 234 1267 m -30 X s 234 1324 m -30 X s 234 1370 m -30 X s 234 1409 m -30 X s 234 1443 m -30 X s 234
 1473 m -30 X s 264 1500 m -60 X s
 gsave  2268 1538 0 0 C 159.625 1498.88 t 0 r /Helvetica-Bold findfont 39.0986 sf 0 0 m (2) show NC gr 
 gsave  2268 1538 0 0 C 94.4375 1476.06 t 0 r /Helvetica-Bold findfont 58.6478 sf 0 0 m (10) show NC gr  0 0 1 c 1 1 1 c black 1711 1138 m -6 Y 450 X 150 Y -7 X -144 Y f 0 0 1 c 1701 1138 m 154 Y 453 X -154 Y -453 X cl s black 0 0 1 c black 0 0 1 c
 gsave  2268 1538 0 0 C 1720.25 1228.44 t 0 r /Helvetica-Bold findfont 65.1643 sf 0 0 m (Mean  ) show NC gr  black 0 0 1 c
 gsave  2268 1538 0 0 C 1932.06 1228.44 t 0 r /Helvetica-Bold findfont 65.1643 sf 0 0 m (  465.4) show NC gr  black 0 0 1 c
 gsave  2268 1538 0 0 C 1720.25 1153.5 t 0 r /Helvetica-Bold findfont 65.1643 sf 0 0 m (RMS   ) show NC gr  black 0 0 1 c
 gsave  2268 1538 0 0 C 1941.81 1153.5 t 0 r /Helvetica-Bold findfont 65.1643 sf 0 0 m (  294.1) show NC gr  black 1 1 1 c black 204 330 m 20 X 352 Y 20 X -352 Y 19 X -176 Y 20 X 176 Y 79 X -176 Y 118 X 176 Y 40 X 352 Y 39 X -176 Y 20 X 352 Y 20 X
 -34 Y 19 X -142 Y 20 X 57 Y 20 X 200 Y 20 X -154 Y 19 X 154 Y 20 X -115 Y 20 X 137 Y 20 X 130 Y 19 X -176 Y 40 X -91 Y 19 X -215 Y 20 X 130 Y 20 X -585 Y 20 X 352 Y 19 X -176 Y 20 X -176 Y 40 X 176 Y 19 X -176 Y 20 X 352 Y 20 X -352 Y 98 X 176 Y 20
 X -176 Y 533 X 176 Y 20 X -176 Y 78 X 176 Y 20 X -176 Y 237 X 176 Y 20 X -176 Y 39 X 176 Y 20 X -176 Y 59 X s 1 1 1 c black 1711 1307 m -6 Y 450 X 150 Y -7 X -144 Y f 1701 1307 m 154 Y 453 X -154 Y -453 X cl s
 gsave  2268 1538 0 0 C 1720.25 1397.88 t 0 r /Helvetica-Bold findfont 65.1643 sf 0 0 m (Mean  ) show NC gr 
 gsave  2268 1538 0 0 C 1932.06 1397.88 t 0 r /Helvetica-Bold findfont 65.1643 sf 0 0 m (  795.4) show NC gr 
 gsave  2268 1538 0 0 C 1720.25 1319.69 t 0 r /Helvetica-Bold findfont 65.1643 sf 0 0 m (RMS   ) show NC gr 
 gsave  2268 1538 0 0 C 1932.06 1319.69 t 0 r /Helvetica-Bold findfont 65.1643 sf 0 0 m (  371.9) show NC gr  1 1 1 c black 1711 1307 m -6 Y 450 X 150 Y -7 X -144 Y f 1701 1307 m 154 Y 453 X -154 Y -453 X cl s
 gsave  2268 1538 0 0 C 1720.25 1397.88 t 0 r /Helvetica-Bold findfont 65.1643 sf 0 0 m (Mean  ) show NC gr 
 gsave  2268 1538 0 0 C 1932.06 1397.88 t 0 r /Helvetica-Bold findfont 65.1643 sf 0 0 m (  795.4) show NC gr 
 gsave  2268 1538 0 0 C 1720.25 1319.69 t 0 r /Helvetica-Bold findfont 65.1643 sf 0 0 m (RMS   ) show NC gr 
 gsave  2268 1538 0 0 C 1932.06 1319.69 t 0 r /Helvetica-Bold findfont 65.1643 sf 0 0 m (  371.9) show NC gr  1 1 1 c black 1720 969 m -13 Y 447 X 147 Y -13 X -134 Y f 1701 969 m 154 Y 453 X -154 Y -453 X cl s
 gsave  2268 1538 0 0 C 1811.5 1065.56 t 0 r /Helvetica-Bold findfont 48.8732 sf 0 0 m (2010 runs) show NC gr  0 0 1 c[ 12 12] 0 sd 6 lw 1718 1084 m 79 X s black[  ] 0 sd 3 lw /w 2 def /w2 {w 2 div} def /w3 {w 3 div} def 1757 1084 m20[ 12 12] 0 sd 6
 lw
 gsave  2268 1538 0 0 C 1811.5 990.625 t 0 r /Helvetica-Bold findfont 48.8732 sf 0 0 m 
 198 168 138 119 106 78 54 27
(2011 runs) K NC gr [  ] 0 sd 3 lw 1718 1007 m 79 X s 1757 1007 m20
 gr  gr showpage
end
%%EOF
