%!PS-Adobe-2.0 EPSF-2.0
%%BoundingBox:  0 0 567 384
%%Title: ./meansize.eps: Average event sizes for p+p runs in 2010 and 2011
%%Creator: ROOT Version 5.27/06d
%%CreationDate: Tue May 17 19:23:07 2011
%%EndComments
%%BeginProlog
80 dict begin
/s {stroke} def /l {lineto} def /m {moveto} def /t {translate} def
/r {rotate} def /rl {roll}  def /R {repeat} def
/d {rlineto} def /rm {rmoveto} def /gr {grestore} def /f {eofill} def
/c {setrgbcolor} def /black {0 setgray} def /sd {setdash} def
/cl {closepath} def /sf {scalefont setfont} def /lw {setlinewidth} def
/box {m dup 0 exch d exch 0 d 0 exch neg d cl} def
/NC{systemdict begin initclip end}def/C{NC box clip newpath}def
/bl {box s} def /bf {box f} def /Y { 0 exch d} def /X { 0 d} def 
/K {{pop pop 0 moveto} exch kshow} bind def
/ita {/ang 15 def gsave [1 0 ang dup sin exch cos div 1 0 0] concat} def 
/mp {newpath /y exch def /x exch def} def
/side {[w .77 mul w .23 mul] .385 w mul sd w 0 l currentpoint t -144 r} def
/mr {mp x y w2 0 360 arc} def /m24 {mr s} def /m20 {mr f} def
/mb {mp x y w2 add m w2 neg 0 d 0 w neg d w 0 d 0 w d cl} def
/mt {mp x y w2 add m w2 neg w neg d w 0 d cl} def
/m21 {mb f} def /m25 {mb s} def /m22 {mt f} def /m26{mt s} def
/m23 {mp x y w2 sub m w2 w d w neg 0 d cl f} def
/m27 {mp x y w2 add m w3 neg w2 neg d w3 w2 neg d w3 w2 d cl s} def
/m28 {mp x w2 sub y w2 sub w3 add m w3 0 d  0 w3 neg d w3 0 d 0 w3 d w3 0 d  0 w3 d w3 neg 0 d 0 w3 d w3 neg 0 d 0 w3 neg d w3 neg 0 d cl s } def
/m29 {mp gsave x w2 sub y w2 add w3 sub m currentpoint t 4 {side} repeat cl fill gr} def
/m30 {mp gsave x w2 sub y w2 add w3 sub m currentpoint t 4 {side} repeat cl s gr} def
/m31 {mp x y w2 sub m 0 w d x w2 sub y m w 0 d x w2 sub y w2 add m w w neg d x w2 sub y w2 sub m w w d s} def
/m32 {mp x y w2 sub m w2 w d w neg 0 d cl s} def
/m33 {mp x y w2 add m w3 neg w2 neg d w3 w2 neg d w3 w2 d cl f} def
/m34 {mp x w2 sub y w2 sub w3 add m w3 0 d  0 w3 neg d w3 0 d 0 w3 d w3 0 d  0 w3 d w3 neg 0 d 0 w3 d w3 neg 0 d 0 w3 neg d w3 neg 0 d cl f } def
/m2 {mp x y w2 sub m 0 w d x w2 sub y m w 0 d s} def
/m5 {mp x w2 sub y w2 sub m w w d x w2 sub y w2 add m w w neg d s} def
/reEncode {exch findfont dup length dict begin {1 index /FID eq  {pop pop} {def} ifelse } forall /Encoding exch def currentdict end dup /FontName get exch definefont pop } def [/Times-Bold /Times-Italic /Times-BoldItalic /Helvetica /Helvetica-Oblique
 /Helvetica-Bold /Helvetica-BoldOblique /Courier /Courier-Oblique /Courier-Bold /Courier-BoldOblique /Times-Roman /AvantGarde-Book /AvantGarde-BookOblique /AvantGarde-Demi /AvantGarde-DemiOblique /Bookman-Demi /Bookman-DemiItalic /Bookman-Light
 /Bookman-LightItalic /Helvetica-Narrow /Helvetica-Narrow-Bold /Helvetica-Narrow-BoldOblique /Helvetica-Narrow-Oblique /NewCenturySchlbk-Roman /NewCenturySchlbk-Bold /NewCenturySchlbk-BoldItalic /NewCenturySchlbk-Italic /Palatino-Bold
 /Palatino-BoldItalic /Palatino-Italic /Palatino-Roman ] {ISOLatin1Encoding reEncode } forall%%EndProlog
%%BeginSetup
%%EndSetup
newpath  gsave  .25 .25 scale  gsave  0 0 t black[  ] 0 sd 3 lw 1 1 1 c black 1 1 1 c black 1973 1361 204 154 bl 1973 1361 204 154 bl 1 1 1 c black 1973 1361 204 154 bl 1973 1361 204 154 bl 0 0 1 c[ 12 12] 0 sd 6 lw 1 1 1 c black 0 0 1 c 204 1190 m
 20 X -82 Y 20 X -616 Y 19 X -169 Y 20 X 474 Y 20 X 62 Y 19 X -99 Y 40 X 169 Y 20 X 112 Y 19 X 162 Y 20 X 106 Y 20 X 16 Y 20 X -74 Y 19 X -54 Y 20 X -70 Y 20 X 17 Y 19 X 165 Y 20 X 50 Y 20 X -183 Y 20 X -193 Y 19 X -35 Y 20 X -287 Y 20 X 169 Y 20 X
 -338 Y 19 X 367 Y 20 X -268 Y 20 X 70 Y 39 X -70 Y 20 X -437 Y 39 X 169 Y 40 X -169 Y 20 X 169 Y 19 X -169 Y 119 X 169 Y 39 X -169 Y 178 X 169 Y 19 X -169 Y 40 X 338 Y 20 X -338 Y 848 X s[  ] 0 sd 3 lw 1 1 1 c black 1711 1138 m -6 Y 450 X 150 Y -7 X
 -144 Y f 0 0 1 c 1701 1138 m 154 Y 453 X -154 Y -453 X cl s black 0 0 1 c black 0 0 1 c
 gsave  2268 1538 0 0 C 1720.25 1228.5 t 0 r /Helvetica-Bold findfont 65.1643 sf 0 0 m (Mean  ) show NC gr  black 0 0 1 c
 gsave  2268 1538 0 0 C 1932.06 1228.5 t 0 r /Helvetica-Bold findfont 65.1643 sf 0 0 m (  708.6) show NC gr  black 0 0 1 c
 gsave  2268 1538 0 0 C 1720.25 1153.56 t 0 r /Helvetica-Bold findfont 65.1643 sf 0 0 m (RMS   ) show NC gr  black 0 0 1 c
 gsave  2268 1538 0 0 C 1941.81 1153.56 t 0 r /Helvetica-Bold findfont 65.1643 sf 0 0 m (  354.1) show NC gr  black 204 154 m 1973 X s
 gsave  2268 1538 0 0 C 1642.06 36.0625 t 0 r /Helvetica-Bold findfont 58.6478 sf 0 0 m (Event size \(kBytes\)) show NC gr  204 194 m -40 Y s 244 174 m -20 Y s 283 174 m -20 Y s 322 174 m -20 Y s 362 174 m -20 Y s 401 194 m -40 Y s 441 174 m -20 Y s
 480 174 m -20 Y s 520 174 m -20 Y s 559 174 m -20 Y s 599 194 m -40 Y s 638 174 m -20 Y s 678 174 m -20 Y s 717 174 m -20 Y s 757 174 m -20 Y s 796 194 m -40 Y s 835 174 m -20 Y s 875 174 m -20 Y s 914 174 m -20 Y s 954 174 m -20 Y s 993 194 m -40 Y
 s 1033 174 m -20 Y s 1072 174 m -20 Y s 1112 174 m -20 Y s 1151 174 m -20 Y s 1191 194 m -40 Y s 1230 174 m -20 Y s 1269 174 m -20 Y s 1309 174 m -20 Y s 1348 174 m -20 Y s 1388 194 m -40 Y s 1427 174 m -20 Y s 1467 174 m -20 Y s 1506 174 m -20 Y s
 1546 174 m -20 Y s 1585 194 m -40 Y s 1625 174 m -20 Y s 1664 174 m -20 Y s 1704 174 m -20 Y s 1743 174 m -20 Y s 1782 194 m -40 Y s 1822 174 m -20 Y s 1861 174 m -20 Y s 1901 174 m -20 Y s 1940 174 m -20 Y s 1980 194 m -40 Y s 2019 174 m -20 Y s
 2059 174 m -20 Y s 2098 174 m -20 Y s 2138 174 m -20 Y s 2177 194 m -40 Y s
 gsave  2268 1538 0 0 C 185.688 97.9375 t 0 r /Helvetica-Bold findfont 58.6478 sf 0 0 m (0) show NC gr 
 gsave  2268 1538 0 0 C 351.812 97.9375 t 0 r /Helvetica-Bold findfont 58.6478 sf 0 0 m (500) show NC gr 
 gsave  2268 1538 0 0 C 531 97.9375 t 0 r /Helvetica-Bold findfont 58.6478 sf 0 0 m (1000) show NC gr 
 gsave  2268 1538 0 0 C 729.75 97.9375 t 0 r /Helvetica-Bold findfont 58.6478 sf 0 0 m (1500) show NC gr 
 gsave  2268 1538 0 0 C 925.25 97.9375 t 0 r /Helvetica-Bold findfont 58.6478 sf 0 0 m (2000) show NC gr 
 gsave  2268 1538 0 0 C 1124 97.9375 t 0 r /Helvetica-Bold findfont 58.6478 sf 0 0 m (2500) show NC gr 
 gsave  2268 1538 0 0 C 1319.5 97.9375 t 0 r /Helvetica-Bold findfont 58.6478 sf 0 0 m (3000) show NC gr 
 gsave  2268 1538 0 0 C 1518.25 97.9375 t 0 r /Helvetica-Bold findfont 58.6478 sf 0 0 m (3500) show NC gr 
 gsave  2268 1538 0 0 C 1717 97.9375 t 0 r /Helvetica-Bold findfont 58.6478 sf 0 0 m (4000) show NC gr 
 gsave  2268 1538 0 0 C 1912.5 97.9375 t 0 r /Helvetica-Bold findfont 58.6478 sf 0 0 m (4500) show NC gr 
 gsave  2268 1538 0 0 C 2111.25 97.9375 t 0 r /Helvetica-Bold findfont 58.6478 sf 0 0 m (5000) show NC gr  204 154 m 1361 Y s
 gsave  2268 1538 0 0 C 65.125 1078.62 t 90 r /Helvetica-Bold findfont 58.6478 sf 0 0 m (Number of runs) show NC gr  234 154 m -30 X s 234 198 m -30 X s 234 236 m -30 X s 234 268 m -30 X s 234 297 m -30 X s 264 323 m -60 X s
 gsave  2268 1538 0 0 C 185.5 299.562 t 0 r  -31 0 t /Helvetica-Bold findfont 58.6478 sf 0 0 m (1) show NC gr  234 492 m -30 X s 234 591 m -30 X s 234 661 m -30 X s 234 715 m -30 X s 234 760 m -30 X s 234 797 m -30 X s 234 830 m -30 X s 234 859 m -30
 X s 264 884 m -60 X s
 gsave  2268 1538 0 0 C 185.5 861.062 t 0 r  -63 0 t /Helvetica-Bold findfont 58.6478 sf 0 0 m (10) show NC gr  234 1053 m -30 X s 234 1152 m -30 X s 234 1222 m -30 X s 234 1277 m -30 X s 234 1321 m -30 X s 234 1359 m -30 X s 234 1392 m -30 X s 234
 1420 m -30 X s 264 1446 m -60 X s
 gsave  2268 1538 0 0 C 159.625 1443.56 t 0 r /Helvetica-Bold findfont 39.0986 sf 0 0 m (2) show NC gr 
 gsave  2268 1538 0 0 C 94.4375 1420.75 t 0 r /Helvetica-Bold findfont 58.6478 sf 0 0 m (10) show NC gr  0 0 1 c 1 1 1 c black 1711 1138 m -6 Y 450 X 150 Y -7 X -144 Y f 0 0 1 c 1701 1138 m 154 Y 453 X -154 Y -453 X cl s black 0 0 1 c black 0 0 1 c
 gsave  2268 1538 0 0 C 1720.25 1228.5 t 0 r /Helvetica-Bold findfont 65.1643 sf 0 0 m (Mean  ) show NC gr  black 0 0 1 c
 gsave  2268 1538 0 0 C 1932.06 1228.5 t 0 r /Helvetica-Bold findfont 65.1643 sf 0 0 m (  708.6) show NC gr  black 0 0 1 c
 gsave  2268 1538 0 0 C 1720.25 1153.56 t 0 r /Helvetica-Bold findfont 65.1643 sf 0 0 m (RMS   ) show NC gr  black 0 0 1 c
 gsave  2268 1538 0 0 C 1941.81 1153.56 t 0 r /Helvetica-Bold findfont 65.1643 sf 0 0 m (  354.1) show NC gr  black 1 1 1 c black 204 323 m 20 X 268 Y 20 X -268 Y 19 X 268 Y 20 X -437 Y 20 X 169 Y 39 X -169 Y 20 X 437 Y 20 X -268 Y 19 X 691 Y 20 X
 -522 Y 20 X -338 Y 20 X 169 Y 19 X -169 Y 20 X 169 Y 20 X 169 Y 19 X 223 Y 20 X -124 Y 20 X 437 Y 20 X -169 Y 19 X -99 Y 20 X 37 Y 20 X -136 Y 20 X -70 Y 19 X 268 Y 20 X -367 Y 59 X 338 Y 20 X -338 Y 20 X 99 Y 19 X 169 Y 20 X -169 Y 20 X 70 Y 20 X
 -507 Y 19 X 169 Y 20 X 169 Y 20 X -338 Y 20 X 507 Y 19 X -507 Y 138 X 169 Y 20 X -169 Y 20 X 169 Y 39 X 268 Y 20 X -437 Y 59 X 169 Y 20 X -169 Y 59 X 169 Y 20 X -169 Y 59 X 169 Y 20 X -169 Y 19 X 169 Y 60 X -169 Y 39 X 169 Y 20 X -169 Y 59 X 169 Y
 20 X -169 Y 20 X 169 Y 19 X -169 Y 99 X 169 Y 20 X -169 Y 98 X 169 Y 20 X -169 Y 217 X s 1 1 1 c black 1711 1307 m -6 Y 450 X 150 Y -7 X -144 Y f 1701 1307 m 154 Y 453 X -154 Y -453 X cl s
 gsave  2268 1538 0 0 C 1720.25 1397.94 t 0 r /Helvetica-Bold findfont 65.1643 sf 0 0 m (Mean  ) show NC gr 
 gsave  2268 1538 0 0 C 1941.81 1397.94 t 0 r /Helvetica-Bold findfont 65.1643 sf 0 0 m (   1281) show NC gr 
 gsave  2268 1538 0 0 C 1720.25 1319.75 t 0 r /Helvetica-Bold findfont 65.1643 sf 0 0 m (RMS   ) show NC gr 
 gsave  2268 1538 0 0 C 1932.06 1319.75 t 0 r /Helvetica-Bold findfont 65.1643 sf 0 0 m (  810.7) show NC gr  1 1 1 c black 1711 1307 m -6 Y 450 X 150 Y -7 X -144 Y f 1701 1307 m 154 Y 453 X -154 Y -453 X cl s
 gsave  2268 1538 0 0 C 1720.25 1397.94 t 0 r /Helvetica-Bold findfont 65.1643 sf 0 0 m (Mean  ) show NC gr 
 gsave  2268 1538 0 0 C 1941.81 1397.94 t 0 r /Helvetica-Bold findfont 65.1643 sf 0 0 m (   1281) show NC gr 
 gsave  2268 1538 0 0 C 1720.25 1319.75 t 0 r /Helvetica-Bold findfont 65.1643 sf 0 0 m (RMS   ) show NC gr 
 gsave  2268 1538 0 0 C 1932.06 1319.75 t 0 r /Helvetica-Bold findfont 65.1643 sf 0 0 m (  810.7) show NC gr  1 1 1 c black 1720 969 m -13 Y 447 X 147 Y -13 X -134 Y f 1701 969 m 154 Y 453 X -154 Y -453 X cl s
 gsave  2268 1538 0 0 C 1811.5 1065.56 t 0 r /Helvetica-Bold findfont 48.8732 sf 0 0 m (2010 runs) show NC gr  0 0 1 c[ 12 12] 0 sd 6 lw 1718 1084 m 79 X s black[  ] 0 sd 3 lw /w 2 def /w2 {w 2 div} def /w3 {w 3 div} def 1757 1084 m20[ 12 12] 0 sd 6
 lw
 gsave  2268 1538 0 0 C 1811.5 990.625 t 0 r /Helvetica-Bold findfont 48.8732 sf 0 0 m 
 198 168 138 119 106 78 54 27
(2011 runs) K NC gr [  ] 0 sd 3 lw 1718 1007 m 79 X s 1757 1007 m20
 gr  gr showpage
end
%%EOF
